EESchema Schematic File Version 4
EELAYER 30 0
EELAYER END
$Descr A4 11693 8268
encoding utf-8
Sheet 1 1
Title "Arduino UNO LED example"
Date "2020-02-25"
Rev "1.0"
Comp ""
Comment1 ""
Comment2 ""
Comment3 ""
Comment4 ""
$EndDescr
$Comp
L MCU_Module:Arduino_UNO_R2 A1
U 1 1 5E55210B
P 6150 3850
F 0 "A1" H 6900 5000 50  0000 C CNN
F 1 "Arduino_UNO_R2" H 6950 4900 50  0000 C CNN
F 2 "Module:Arduino_UNO_R2" H 6150 3850 50  0001 C CIN
F 3 "https://www.arduino.cc/en/Main/arduinoBoardUno" H 6150 3850 50  0001 C CNN
	1    6150 3850
	1    0    0    -1  
$EndComp
Text Label 4650 3250 0    50   ~ 0
SERIAL_PROG_RX
Text Label 4650 3350 0    50   ~ 0
SERIAL_PROG_TX
Wire Wire Line
	5650 3650 4550 3650
Wire Wire Line
	4550 3650 4550 4100
$Comp
L Device:R R1
U 1 1 5E552A7C
P 4550 4250
F 0 "R1" H 4620 4296 50  0000 L CNN
F 1 "180" H 4620 4205 50  0000 L CNN
F 2 "" V 4480 4250 50  0001 C CNN
F 3 "~" H 4550 4250 50  0001 C CNN
	1    4550 4250
	1    0    0    -1  
$EndComp
$Comp
L Device:LED D1
U 1 1 5E552DC6
P 4550 4650
F 0 "D1" V 4589 4533 50  0000 R CNN
F 1 "LED" V 4498 4533 50  0000 R CNN
F 2 "" H 4550 4650 50  0001 C CNN
F 3 "~" H 4550 4650 50  0001 C CNN
	1    4550 4650
	0    -1   -1   0   
$EndComp
$Comp
L Connector_Generic:Conn_01x02 J1
U 1 1 5E554BFC
P 4550 2500
F 0 "J1" H 4468 2717 50  0000 C CNN
F 1 "Conn_01x02" H 4468 2626 50  0000 C CNN
F 2 "" H 4550 2500 50  0001 C CNN
F 3 "~" H 4550 2500 50  0001 C CNN
	1    4550 2500
	-1   0    0    -1  
$EndComp
Wire Wire Line
	4750 2500 6050 2500
Wire Wire Line
	6050 2500 6050 2850
Wire Wire Line
	4750 2600 4750 2750
$Comp
L power:GND #PWR02
U 1 1 5E55565A
P 4750 2750
F 0 "#PWR02" H 4750 2500 50  0001 C CNN
F 1 "GND" H 4755 2577 50  0000 C CNN
F 2 "" H 4750 2750 50  0001 C CNN
F 3 "" H 4750 2750 50  0001 C CNN
	1    4750 2750
	1    0    0    -1  
$EndComp
$Comp
L power:GND #PWR01
U 1 1 5E5559CD
P 4550 4900
F 0 "#PWR01" H 4550 4650 50  0001 C CNN
F 1 "GND" H 4555 4727 50  0000 C CNN
F 2 "" H 4550 4900 50  0001 C CNN
F 3 "" H 4550 4900 50  0001 C CNN
	1    4550 4900
	1    0    0    -1  
$EndComp
$Comp
L power:GND #PWR03
U 1 1 5E555C85
P 6150 5150
F 0 "#PWR03" H 6150 4900 50  0001 C CNN
F 1 "GND" H 6155 4977 50  0000 C CNN
F 2 "" H 6150 5150 50  0001 C CNN
F 3 "" H 6150 5150 50  0001 C CNN
	1    6150 5150
	1    0    0    -1  
$EndComp
Wire Wire Line
	4650 3250 5650 3250
Wire Wire Line
	4650 3350 5650 3350
Wire Wire Line
	4550 4500 4550 4400
Wire Wire Line
	4550 4800 4550 4900
$Comp
L power:+5V #PWR05
U 1 1 5E556961
P 6350 2500
F 0 "#PWR05" H 6350 2350 50  0001 C CNN
F 1 "+5V" H 6365 2673 50  0000 C CNN
F 2 "" H 6350 2500 50  0001 C CNN
F 3 "" H 6350 2500 50  0001 C CNN
	1    6350 2500
	1    0    0    -1  
$EndComp
$Comp
L power:+3.3V #PWR04
U 1 1 5E556E3C
P 6250 2350
F 0 "#PWR04" H 6250 2200 50  0001 C CNN
F 1 "+3.3V" H 6265 2523 50  0000 C CNN
F 2 "" H 6250 2350 50  0001 C CNN
F 3 "" H 6250 2350 50  0001 C CNN
	1    6250 2350
	1    0    0    -1  
$EndComp
Wire Wire Line
	6250 2350 6250 2850
Wire Wire Line
	6350 2500 6350 2850
Wire Wire Line
	6050 4950 6050 5050
Wire Wire Line
	6050 5050 6150 5050
Wire Wire Line
	6250 5050 6250 4950
Wire Wire Line
	6150 4950 6150 5050
Connection ~ 6150 5050
Wire Wire Line
	6150 5050 6250 5050
Wire Wire Line
	6150 5050 6150 5150
Text Label 4850 3650 0    50   ~ 0
LED_OUTPUT
$Comp
L Switch:SW_Push SW1
U 1 1 5E55C239
P 7650 3250
F 0 "SW1" H 7650 3535 50  0000 C CNN
F 1 "RESET" H 7650 3444 50  0000 C CNN
F 2 "" H 7650 3450 50  0001 C CNN
F 3 "~" H 7650 3450 50  0001 C CNN
	1    7650 3250
	1    0    0    -1  
$EndComp
$Comp
L power:GND #PWR06
U 1 1 5E55E1B1
P 8050 3300
F 0 "#PWR06" H 8050 3050 50  0001 C CNN
F 1 "GND" H 8055 3127 50  0000 C CNN
F 2 "" H 8050 3300 50  0001 C CNN
F 3 "" H 8050 3300 50  0001 C CNN
	1    8050 3300
	1    0    0    -1  
$EndComp
Wire Wire Line
	6650 3250 7450 3250
Wire Wire Line
	7850 3250 8050 3250
Wire Wire Line
	8050 3250 8050 3300
$EndSCHEMATC
